<?xml version="1.0" encoding="UTF-8"?>
<testsuite xmlns:xsi="http://www.w3.org/2001/XMLSchema-instance" xsi:noNamespaceSchemaLocation="https://maven.apache.org/surefire/maven-surefire-plugin/xsd/surefire-test-report.xsd" name="kingsman.rabbitmqMongo.AppTest" time="0.029" tests="1" errors="0" skipped="0" failures="0">
  <properties>
    <property name="java.specification.version" value="17"/>
    <property name="sun.cpu.isalist" value="amd64"/>
    <property name="sun.jnu.encoding" value="Cp1252"/>
    <property name="java.class.path" value="C:\Users\pc\kingsman\rabbitmq-to-mongo\target\test-classes;C:\Users\pc\kingsman\rabbitmq-to-mongo\target\classes;C:\MAVENPROJECTS\repository\junit\junit\4.11\junit-4.11.jar;C:\MAVENPROJECTS\repository\org\hamcrest\hamcrest-core\1.3\hamcrest-core-1.3.jar;C:\MAVENPROJECTS\repository\org\mongodb\mongodb-driver-sync\4.3.3\mongodb-driver-sync-4.3.3.jar;C:\MAVENPROJECTS\repository\org\mongodb\bson\4.3.3\bson-4.3.3.jar;C:\MAVENPROJECTS\repository\org\mongodb\mongodb-driver-core\4.3.3\mongodb-driver-core-4.3.3.jar;C:\MAVENPROJECTS\repository\com\rabbitmq\amqp-client\5.14.0\amqp-client-5.14.0.jar;C:\MAVENPROJECTS\repository\org\slf4j\slf4j-api\1.7.32\slf4j-api-1.7.32.jar;C:\MAVENPROJECTS\repository\com\googlecode\json-simple\json-simple\1.1.1\json-simple-1.1.1.jar;C:\MAVENPROJECTS\repository\com\google\cloud\google-cloud-pubsub\1.125.13\google-cloud-pubsub-1.125.13.jar;C:\MAVENPROJECTS\repository\io\grpc\grpc-api\1.59.1\grpc-api-1.59.1.jar;C:\MAVENPROJECTS\repository\io\grpc\grpc-stub\1.59.1\grpc-stub-1.59.1.jar;C:\MAVENPROJECTS\repository\io\grpc\grpc-protobuf\1.59.1\grpc-protobuf-1.59.1.jar;C:\MAVENPROJECTS\repository\io\grpc\grpc-protobuf-lite\1.59.1\grpc-protobuf-lite-1.59.1.jar;C:\MAVENPROJECTS\repository\com\google\api\api-common\2.21.0\api-common-2.21.0.jar;C:\MAVENPROJECTS\repository\com\google\protobuf\protobuf-java\3.25.1\protobuf-java-3.25.1.jar;C:\MAVENPROJECTS\repository\com\google\api\grpc\proto-google-common-protos\2.29.0\proto-google-common-protos-2.29.0.jar;C:\MAVENPROJECTS\repository\com\google\auth\google-auth-library-oauth2-http\1.20.0\google-auth-library-oauth2-http-1.20.0.jar;C:\MAVENPROJECTS\repository\com\google\auth\google-auth-library-credentials\1.20.0\google-auth-library-credentials-1.20.0.jar;C:\MAVENPROJECTS\repository\com\google\http-client\google-http-client-gson\1.43.3\google-http-client-gson-1.43.3.jar;C:\MAVENPROJECTS\repository\com\google\api\grpc\proto-google-cloud-pubsub-v1\1.107.13\proto-google-cloud-pubsub-v1-1.107.13.jar;C:\MAVENPROJECTS\repository\com\google\api\grpc\proto-google-iam-v1\1.24.0\proto-google-iam-v1-1.24.0.jar;C:\MAVENPROJECTS\repository\com\google\guava\guava\32.1.3-jre\guava-32.1.3-jre.jar;C:\MAVENPROJECTS\repository\com\google\guava\failureaccess\1.0.1\failureaccess-1.0.1.jar;C:\MAVENPROJECTS\repository\com\google\guava\listenablefuture\9999.0-empty-to-avoid-conflict-with-guava\listenablefuture-9999.0-empty-to-avoid-conflict-with-guava.jar;C:\MAVENPROJECTS\repository\org\checkerframework\checker-qual\3.40.0\checker-qual-3.40.0.jar;C:\MAVENPROJECTS\repository\com\google\j2objc\j2objc-annotations\2.8\j2objc-annotations-2.8.jar;C:\MAVENPROJECTS\repository\com\google\api\gax\2.38.0\gax-2.38.0.jar;C:\MAVENPROJECTS\repository\com\google\api\gax-grpc\2.38.0\gax-grpc-2.38.0.jar;C:\MAVENPROJECTS\repository\io\grpc\grpc-alts\1.59.1\grpc-alts-1.59.1.jar;C:\MAVENPROJECTS\repository\io\grpc\grpc-grpclb\1.59.1\grpc-grpclb-1.59.1.jar;C:\MAVENPROJECTS\repository\org\conscrypt\conscrypt-openjdk-uber\2.5.2\conscrypt-openjdk-uber-2.5.2.jar;C:\MAVENPROJECTS\repository\io\grpc\grpc-auth\1.59.1\grpc-auth-1.59.1.jar;C:\MAVENPROJECTS\repository\io\grpc\grpc-netty-shaded\1.59.1\grpc-netty-shaded-1.59.1.jar;C:\MAVENPROJECTS\repository\io\perfmark\perfmark-api\0.26.0\perfmark-api-0.26.0.jar;C:\MAVENPROJECTS\repository\io\grpc\grpc-googleapis\1.59.1\grpc-googleapis-1.59.1.jar;C:\MAVENPROJECTS\repository\io\grpc\grpc-xds\1.59.1\grpc-xds-1.59.1.jar;C:\MAVENPROJECTS\repository\io\opencensus\opencensus-proto\0.2.0\opencensus-proto-0.2.0.jar;C:\MAVENPROJECTS\repository\io\grpc\grpc-services\1.59.1\grpc-services-1.59.1.jar;C:\MAVENPROJECTS\repository\com\google\re2j\re2j\1.7\re2j-1.7.jar;C:\MAVENPROJECTS\repository\com\google\api\gax-httpjson\2.38.0\gax-httpjson-2.38.0.jar;C:\MAVENPROJECTS\repository\com\google\code\gson\gson\2.10.1\gson-2.10.1.jar;C:\MAVENPROJECTS\repository\com\google\protobuf\protobuf-java-util\3.25.1\protobuf-java-util-3.25.1.jar;C:\MAVENPROJECTS\repository\org\threeten\threetenbp\1.6.8\threetenbp-1.6.8.jar;C:\MAVENPROJECTS\repository\com\google\code\findbugs\jsr305\3.0.2\jsr305-3.0.2.jar;C:\MAVENPROJECTS\repository\io\opencensus\opencensus-api\0.31.1\opencensus-api-0.31.1.jar;C:\MAVENPROJECTS\repository\io\grpc\grpc-context\1.59.1\grpc-context-1.59.1.jar;C:\MAVENPROJECTS\repository\io\grpc\grpc-inprocess\1.59.1\grpc-inprocess-1.59.1.jar;C:\MAVENPROJECTS\repository\io\grpc\grpc-core\1.59.1\grpc-core-1.59.1.jar;C:\MAVENPROJECTS\repository\com\google\android\annotations\4.1.1.4\annotations-4.1.1.4.jar;C:\MAVENPROJECTS\repository\org\codehaus\mojo\animal-sniffer-annotations\1.23\animal-sniffer-annotations-1.23.jar;C:\MAVENPROJECTS\repository\io\grpc\grpc-util\1.59.1\grpc-util-1.59.1.jar;C:\MAVENPROJECTS\repository\com\google\errorprone\error_prone_annotations\2.23.0\error_prone_annotations-2.23.0.jar;C:\MAVENPROJECTS\repository\com\google\auto\value\auto-value-annotations\1.10.4\auto-value-annotations-1.10.4.jar;C:\MAVENPROJECTS\repository\com\google\http-client\google-http-client\1.43.3\google-http-client-1.43.3.jar;C:\MAVENPROJECTS\repository\org\apache\httpcomponents\httpclient\4.5.14\httpclient-4.5.14.jar;C:\MAVENPROJECTS\repository\commons-logging\commons-logging\1.2\commons-logging-1.2.jar;C:\MAVENPROJECTS\repository\commons-codec\commons-codec\1.16.0\commons-codec-1.16.0.jar;C:\MAVENPROJECTS\repository\org\apache\httpcomponents\httpcore\4.4.16\httpcore-4.4.16.jar;C:\MAVENPROJECTS\repository\io\opencensus\opencensus-contrib-http-util\0.31.1\opencensus-contrib-http-util-0.31.1.jar;C:\MAVENPROJECTS\repository\javax\annotation\javax.annotation-api\1.3.2\javax.annotation-api-1.3.2.jar;C:\MAVENPROJECTS\repository\com\google\cloud\google-cloud-storage\2.31.0\google-cloud-storage-2.31.0.jar;C:\MAVENPROJECTS\repository\com\google\http-client\google-http-client-jackson2\1.43.3\google-http-client-jackson2-1.43.3.jar;C:\MAVENPROJECTS\repository\com\google\api-client\google-api-client\2.2.0\google-api-client-2.2.0.jar;C:\MAVENPROJECTS\repository\com\google\oauth-client\google-oauth-client\1.34.1\google-oauth-client-1.34.1.jar;C:\MAVENPROJECTS\repository\com\google\http-client\google-http-client-apache-v2\1.43.3\google-http-client-apache-v2-1.43.3.jar;C:\MAVENPROJECTS\repository\com\google\apis\google-api-services-storage\v1-rev20240105-2.0.0\google-api-services-storage-v1-rev20240105-2.0.0.jar;C:\MAVENPROJECTS\repository\com\google\cloud\google-cloud-core\2.29.0\google-cloud-core-2.29.0.jar;C:\MAVENPROJECTS\repository\com\google\cloud\google-cloud-core-http\2.29.0\google-cloud-core-http-2.29.0.jar;C:\MAVENPROJECTS\repository\com\google\http-client\google-http-client-appengine\1.43.3\google-http-client-appengine-1.43.3.jar;C:\MAVENPROJECTS\repository\com\google\cloud\google-cloud-core-grpc\2.29.0\google-cloud-core-grpc-2.29.0.jar;C:\MAVENPROJECTS\repository\com\google\api\grpc\proto-google-cloud-storage-v2\2.31.0-alpha\proto-google-cloud-storage-v2-2.31.0-alpha.jar;C:\MAVENPROJECTS\repository\com\google\api\grpc\grpc-google-cloud-storage-v2\2.31.0-alpha\grpc-google-cloud-storage-v2-2.31.0-alpha.jar;C:\MAVENPROJECTS\repository\com\google\api\grpc\gapic-google-cloud-storage-v2\2.31.0-alpha\gapic-google-cloud-storage-v2-2.31.0-alpha.jar;C:\MAVENPROJECTS\repository\com\fasterxml\jackson\core\jackson-core\2.16.0\jackson-core-2.16.0.jar;C:\MAVENPROJECTS\repository\io\grpc\grpc-rls\1.60.0\grpc-rls-1.60.0.jar;C:\MAVENPROJECTS\repository\org\json\json\20231013\json-20231013.jar;"/>
    <property name="java.vm.vendor" value="Oracle Corporation"/>
    <property name="sun.arch.data.model" value="64"/>
    <property name="user.variant" value=""/>
    <property name="java.vendor.url" value="https://java.oracle.com/"/>
    <property name="user.timezone" value="Europe/Berlin"/>
    <property name="user.country.format" value="FR"/>
    <property name="os.name" value="Windows 11"/>
    <property name="java.vm.specification.version" value="17"/>
    <property name="sun.java.launcher" value="SUN_STANDARD"/>
    <property name="user.country" value="US"/>
    <property name="sun.boot.library.path" value="C:\Program Files\Java\jdk-17.0.2\bin"/>
    <property name="sun.java.command" value="C:\Users\pc\AppData\Local\Temp\surefire2110088273692448296\surefirebooter17562088688402078714.jar C:\Users\pc\AppData\Local\Temp\surefire2110088273692448296 2024-01-12T17-08-32_149-jvmRun1 surefire12793736580494389977tmp surefire_04106609125735684075tmp"/>
    <property name="jdk.debug" value="release"/>
    <property name="surefire.test.class.path" value="C:\Users\pc\kingsman\rabbitmq-to-mongo\target\test-classes;C:\Users\pc\kingsman\rabbitmq-to-mongo\target\classes;C:\MAVENPROJECTS\repository\junit\junit\4.11\junit-4.11.jar;C:\MAVENPROJECTS\repository\org\hamcrest\hamcrest-core\1.3\hamcrest-core-1.3.jar;C:\MAVENPROJECTS\repository\org\mongodb\mongodb-driver-sync\4.3.3\mongodb-driver-sync-4.3.3.jar;C:\MAVENPROJECTS\repository\org\mongodb\bson\4.3.3\bson-4.3.3.jar;C:\MAVENPROJECTS\repository\org\mongodb\mongodb-driver-core\4.3.3\mongodb-driver-core-4.3.3.jar;C:\MAVENPROJECTS\repository\com\rabbitmq\amqp-client\5.14.0\amqp-client-5.14.0.jar;C:\MAVENPROJECTS\repository\org\slf4j\slf4j-api\1.7.32\slf4j-api-1.7.32.jar;C:\MAVENPROJECTS\repository\com\googlecode\json-simple\json-simple\1.1.1\json-simple-1.1.1.jar;C:\MAVENPROJECTS\repository\com\google\cloud\google-cloud-pubsub\1.125.13\google-cloud-pubsub-1.125.13.jar;C:\MAVENPROJECTS\repository\io\grpc\grpc-api\1.59.1\grpc-api-1.59.1.jar;C:\MAVENPROJECTS\repository\io\grpc\grpc-stub\1.59.1\grpc-stub-1.59.1.jar;C:\MAVENPROJECTS\repository\io\grpc\grpc-protobuf\1.59.1\grpc-protobuf-1.59.1.jar;C:\MAVENPROJECTS\repository\io\grpc\grpc-protobuf-lite\1.59.1\grpc-protobuf-lite-1.59.1.jar;C:\MAVENPROJECTS\repository\com\google\api\api-common\2.21.0\api-common-2.21.0.jar;C:\MAVENPROJECTS\repository\com\google\protobuf\protobuf-java\3.25.1\protobuf-java-3.25.1.jar;C:\MAVENPROJECTS\repository\com\google\api\grpc\proto-google-common-protos\2.29.0\proto-google-common-protos-2.29.0.jar;C:\MAVENPROJECTS\repository\com\google\auth\google-auth-library-oauth2-http\1.20.0\google-auth-library-oauth2-http-1.20.0.jar;C:\MAVENPROJECTS\repository\com\google\auth\google-auth-library-credentials\1.20.0\google-auth-library-credentials-1.20.0.jar;C:\MAVENPROJECTS\repository\com\google\http-client\google-http-client-gson\1.43.3\google-http-client-gson-1.43.3.jar;C:\MAVENPROJECTS\repository\com\google\api\grpc\proto-google-cloud-pubsub-v1\1.107.13\proto-google-cloud-pubsub-v1-1.107.13.jar;C:\MAVENPROJECTS\repository\com\google\api\grpc\proto-google-iam-v1\1.24.0\proto-google-iam-v1-1.24.0.jar;C:\MAVENPROJECTS\repository\com\google\guava\guava\32.1.3-jre\guava-32.1.3-jre.jar;C:\MAVENPROJECTS\repository\com\google\guava\failureaccess\1.0.1\failureaccess-1.0.1.jar;C:\MAVENPROJECTS\repository\com\google\guava\listenablefuture\9999.0-empty-to-avoid-conflict-with-guava\listenablefuture-9999.0-empty-to-avoid-conflict-with-guava.jar;C:\MAVENPROJECTS\repository\org\checkerframework\checker-qual\3.40.0\checker-qual-3.40.0.jar;C:\MAVENPROJECTS\repository\com\google\j2objc\j2objc-annotations\2.8\j2objc-annotations-2.8.jar;C:\MAVENPROJECTS\repository\com\google\api\gax\2.38.0\gax-2.38.0.jar;C:\MAVENPROJECTS\repository\com\google\api\gax-grpc\2.38.0\gax-grpc-2.38.0.jar;C:\MAVENPROJECTS\repository\io\grpc\grpc-alts\1.59.1\grpc-alts-1.59.1.jar;C:\MAVENPROJECTS\repository\io\grpc\grpc-grpclb\1.59.1\grpc-grpclb-1.59.1.jar;C:\MAVENPROJECTS\repository\org\conscrypt\conscrypt-openjdk-uber\2.5.2\conscrypt-openjdk-uber-2.5.2.jar;C:\MAVENPROJECTS\repository\io\grpc\grpc-auth\1.59.1\grpc-auth-1.59.1.jar;C:\MAVENPROJECTS\repository\io\grpc\grpc-netty-shaded\1.59.1\grpc-netty-shaded-1.59.1.jar;C:\MAVENPROJECTS\repository\io\perfmark\perfmark-api\0.26.0\perfmark-api-0.26.0.jar;C:\MAVENPROJECTS\repository\io\grpc\grpc-googleapis\1.59.1\grpc-googleapis-1.59.1.jar;C:\MAVENPROJECTS\repository\io\grpc\grpc-xds\1.59.1\grpc-xds-1.59.1.jar;C:\MAVENPROJECTS\repository\io\opencensus\opencensus-proto\0.2.0\opencensus-proto-0.2.0.jar;C:\MAVENPROJECTS\repository\io\grpc\grpc-services\1.59.1\grpc-services-1.59.1.jar;C:\MAVENPROJECTS\repository\com\google\re2j\re2j\1.7\re2j-1.7.jar;C:\MAVENPROJECTS\repository\com\google\api\gax-httpjson\2.38.0\gax-httpjson-2.38.0.jar;C:\MAVENPROJECTS\repository\com\google\code\gson\gson\2.10.1\gson-2.10.1.jar;C:\MAVENPROJECTS\repository\com\google\protobuf\protobuf-java-util\3.25.1\protobuf-java-util-3.25.1.jar;C:\MAVENPROJECTS\repository\org\threeten\threetenbp\1.6.8\threetenbp-1.6.8.jar;C:\MAVENPROJECTS\repository\com\google\code\findbugs\jsr305\3.0.2\jsr305-3.0.2.jar;C:\MAVENPROJECTS\repository\io\opencensus\opencensus-api\0.31.1\opencensus-api-0.31.1.jar;C:\MAVENPROJECTS\repository\io\grpc\grpc-context\1.59.1\grpc-context-1.59.1.jar;C:\MAVENPROJECTS\repository\io\grpc\grpc-inprocess\1.59.1\grpc-inprocess-1.59.1.jar;C:\MAVENPROJECTS\repository\io\grpc\grpc-core\1.59.1\grpc-core-1.59.1.jar;C:\MAVENPROJECTS\repository\com\google\android\annotations\4.1.1.4\annotations-4.1.1.4.jar;C:\MAVENPROJECTS\repository\org\codehaus\mojo\animal-sniffer-annotations\1.23\animal-sniffer-annotations-1.23.jar;C:\MAVENPROJECTS\repository\io\grpc\grpc-util\1.59.1\grpc-util-1.59.1.jar;C:\MAVENPROJECTS\repository\com\google\errorprone\error_prone_annotations\2.23.0\error_prone_annotations-2.23.0.jar;C:\MAVENPROJECTS\repository\com\google\auto\value\auto-value-annotations\1.10.4\auto-value-annotations-1.10.4.jar;C:\MAVENPROJECTS\repository\com\google\http-client\google-http-client\1.43.3\google-http-client-1.43.3.jar;C:\MAVENPROJECTS\repository\org\apache\httpcomponents\httpclient\4.5.14\httpclient-4.5.14.jar;C:\MAVENPROJECTS\repository\commons-logging\commons-logging\1.2\commons-logging-1.2.jar;C:\MAVENPROJECTS\repository\commons-codec\commons-codec\1.16.0\commons-codec-1.16.0.jar;C:\MAVENPROJECTS\repository\org\apache\httpcomponents\httpcore\4.4.16\httpcore-4.4.16.jar;C:\MAVENPROJECTS\repository\io\opencensus\opencensus-contrib-http-util\0.31.1\opencensus-contrib-http-util-0.31.1.jar;C:\MAVENPROJECTS\repository\javax\annotation\javax.annotation-api\1.3.2\javax.annotation-api-1.3.2.jar;C:\MAVENPROJECTS\repository\com\google\cloud\google-cloud-storage\2.31.0\google-cloud-storage-2.31.0.jar;C:\MAVENPROJECTS\repository\com\google\http-client\google-http-client-jackson2\1.43.3\google-http-client-jackson2-1.43.3.jar;C:\MAVENPROJECTS\repository\com\google\api-client\google-api-client\2.2.0\google-api-client-2.2.0.jar;C:\MAVENPROJECTS\repository\com\google\oauth-client\google-oauth-client\1.34.1\google-oauth-client-1.34.1.jar;C:\MAVENPROJECTS\repository\com\google\http-client\google-http-client-apache-v2\1.43.3\google-http-client-apache-v2-1.43.3.jar;C:\MAVENPROJECTS\repository\com\google\apis\google-api-services-storage\v1-rev20240105-2.0.0\google-api-services-storage-v1-rev20240105-2.0.0.jar;C:\MAVENPROJECTS\repository\com\google\cloud\google-cloud-core\2.29.0\google-cloud-core-2.29.0.jar;C:\MAVENPROJECTS\repository\com\google\cloud\google-cloud-core-http\2.29.0\google-cloud-core-http-2.29.0.jar;C:\MAVENPROJECTS\repository\com\google\http-client\google-http-client-appengine\1.43.3\google-http-client-appengine-1.43.3.jar;C:\MAVENPROJECTS\repository\com\google\cloud\google-cloud-core-grpc\2.29.0\google-cloud-core-grpc-2.29.0.jar;C:\MAVENPROJECTS\repository\com\google\api\grpc\proto-google-cloud-storage-v2\2.31.0-alpha\proto-google-cloud-storage-v2-2.31.0-alpha.jar;C:\MAVENPROJECTS\repository\com\google\api\grpc\grpc-google-cloud-storage-v2\2.31.0-alpha\grpc-google-cloud-storage-v2-2.31.0-alpha.jar;C:\MAVENPROJECTS\repository\com\google\api\grpc\gapic-google-cloud-storage-v2\2.31.0-alpha\gapic-google-cloud-storage-v2-2.31.0-alpha.jar;C:\MAVENPROJECTS\repository\com\fasterxml\jackson\core\jackson-core\2.16.0\jackson-core-2.16.0.jar;C:\MAVENPROJECTS\repository\io\grpc\grpc-rls\1.60.0\grpc-rls-1.60.0.jar;C:\MAVENPROJECTS\repository\org\json\json\20231013\json-20231013.jar;"/>
    <property name="sun.cpu.endian" value="little"/>
    <property name="user.home" value="C:\Users\pc"/>
    <property name="user.language" value="en"/>
    <property name="java.specification.vendor" value="Oracle Corporation"/>
    <property name="java.version.date" value="2022-01-18"/>
    <property name="java.home" value="C:\Program Files\Java\jdk-17.0.2"/>
    <property name="file.separator" value="\"/>
    <property name="basedir" value="C:\Users\pc\kingsman\rabbitmq-to-mongo"/>
    <property name="java.vm.compressedOopsMode" value="Zero based"/>
    <property name="line.separator" value="&#10;"/>
    <property name="java.vm.specification.vendor" value="Oracle Corporation"/>
    <property name="java.specification.name" value="Java Platform API Specification"/>
    <property name="surefire.real.class.path" value="C:\Users\pc\AppData\Local\Temp\surefire2110088273692448296\surefirebooter17562088688402078714.jar"/>
    <property name="user.script" value=""/>
    <property name="sun.management.compiler" value="HotSpot 64-Bit Tiered Compilers"/>
    <property name="java.runtime.version" value="17.0.2+8-LTS-86"/>
    <property name="user.name" value="pc"/>
    <property name="path.separator" value=";"/>
    <property name="os.version" value="10.0"/>
    <property name="java.runtime.name" value="Java(TM) SE Runtime Environment"/>
    <property name="file.encoding" value="Cp1252"/>
    <property name="java.vm.name" value="Java HotSpot(TM) 64-Bit Server VM"/>
    <property name="localRepository" value="C:\MAVENPROJECTS\repository"/>
    <property name="java.vendor.url.bug" value="https://bugreport.java.com/bugreport/"/>
    <property name="java.io.tmpdir" value="C:\Users\pc\AppData\Local\Temp\"/>
    <property name="idea.version" value="2022.1"/>
    <property name="java.version" value="17.0.2"/>
    <property name="user.dir" value="C:\Users\pc\kingsman\rabbitmq-to-mongo"/>
    <property name="os.arch" value="amd64"/>
    <property name="java.vm.specification.name" value="Java Virtual Machine Specification"/>
    <property name="user.language.format" value="fr"/>
    <property name="sun.os.patch.level" value=""/>
    <property name="native.encoding" value="Cp1252"/>
    <property name="java.library.path" value="C:\Program Files\Java\jdk-17.0.2\bin;C:\WINDOWS\Sun\Java\bin;C:\WINDOWS\system32;C:\WINDOWS;C:\Program Files\Microsoft MPI\Bin\;C:\windows\system32;C:\windows;C:\windows\System32\Wbem;C:\windows\System32\WindowsPowerShell\v1.0\;C:\windows\System32\OpenSSH\;C:\Program Files (x86)\NVIDIA Corporation\PhysX\Common;C:\WINDOWS\system32;C:\WINDOWS;C:\WINDOWS\System32\Wbem;C:\WINDOWS\System32\WindowsPowerShell\v1.0\;C:\WINDOWS\System32\OpenSSH\;C:\Users\pc\OneDrive\Bureau\runtime\win64;C:\Users\pc\OneDrive\Bureau\bin;C:\Users\pc\OneDrive\Bureau\polyspace\bin;C:\Program Files\matlab\runtime\win64;C:\Program Files\matlab\bin;C:\Program Files\matlab\polyspace\bin;C:\Program Files\swipl\bin;C:\Program Files\Git\cmd;C:\Program Files\Docker\Docker\resources\bin;C:\ProgramData\DockerDesktop\version-bin;C:\Program Files\nodejs\;C:\Program Files\PuTTY\;C:\Program Files\Java\jdk-13.0.2\bin;C:\Users\pc\Downloads\mpj-v0_44\mpj-v0_44\bin;C:\Program Files\Wolfram Research\WolframScript\;C:\Users\pc\AppData\Local\Programs\Python\Python312\Scripts\;C:\Users\pc\AppData\Local\Programs\Python\Python312\;C:\Users\pc\AppData\Local\Programs\Python\Python38\Scripts\;C:\Users\pc\AppData\Local\Programs\Python\Python38\;C:\Users\pc\AppData\Local\Microsoft\WindowsApps;C:\Users\pc\AppData\Local\Programs\Microsoft VS Code\bin;C:\php;C:\Program Files\MAVEN\apache-maven-3.8.4\bin;C:\Program Files\Java\jdk-13.0.2\bin;C:\Program Files\JetBrains\IntelliJ IDEA 2022.1\bin;;C:\Program Files\heroku\bin;C:\Users\pc\AppData\Roaming\npm;C:\Users\pc\AppData\Local\Programs\MiKTeX\miktex\bin\x64\;C:\Program Files\spark-3.4.1-bin-hadoop3\bin;C:\Users\pc\Downloads\mpj-v0_44\mpj-v0_44\bin;C:\Users\pc\Downloads\kafka-2.8.0-src\kafka-2.8.0-src\bin;;."/>
    <property name="java.vm.info" value="mixed mode, sharing"/>
    <property name="java.vendor" value="Oracle Corporation"/>
    <property name="java.vm.version" value="17.0.2+8-LTS-86"/>
    <property name="sun.io.unicode.encoding" value="UnicodeLittle"/>
    <property name="java.class.version" value="61.0"/>
  </properties>
  <testcase name="shouldAnswerWithTrue" classname="kingsman.rabbitmqMongo.AppTest" time="0.001"/>
</testsuite>