{
  "type": "service_account",
  "project_id": "deep-geography-410920",
  "private_key_id": "78046f250d172b77e61a9c6200b1351c08afc217",
  "private_key": "-----BEGIN PRIVATE KEY-----\nMIIEvgIBADANBgkqhkiG9w0BAQEFAASCBKgwggSkAgEAAoIBAQC/7fDTKZcMLfUr\nN6637CjjGkgsxSU89gbHkyBtENQLwz+6g5jrE9SUmndAiJhU5w6uIbPIjQ5d51FC\nnnZ6/YMUwbDpMz192Yw++UlHhIHW78KhXWh/WvKF2iQ0I6A0W9BCzTHn3VkoGsKe\ngMGloCJhcACwQOVR51/2dHklBT4MlbyIqlWeCBMlIgds5jCZtI2tcX6s5X3jDL/z\nrH/VmiSq13+RyIJoaS0Hv3aZPmoNmiUVdJ0nz4F3+X950cFmWkrvNDKW0NVHRzyS\nX7mhEq9JN2e3s6X2JQ5dBGqxLLNpbNzotgrdU/HbZ69+S3JQMxoDU3+5qxY8JY88\n8s7ESPgBAgMBAAECggEABQQSKOabmrchwuch4w8iM2s2qyrc0gbI/xK+hHMt43/P\nDNAPIUejpN2Tk8VuG7vtI4pgcTOUhko7Eq9i/8xbzmFQfwu2hfE3S9cGff69yPD7\nqG1xQ3DMSUi97PnoYC3tF63Wqc1cXOK0JuHNDcfNVjgP4ItVouoV1TJOjzPfnwMI\nGyX+NWuzVIXCfjKZygPpae2Ti3u5Nn6+X3fNthVI6MQ+/O2Kd9pNJOT2TBBo5k2L\nazWiZqijtpmb5I09upuCOQ4hlnrO7bVUyw7G1iVX8d5cPEktlBG1Obr8vIk68S+s\nzdMRPN6ht8cmmczKz4jiKw3Li2tIOPX8NX69tHxsUQKBgQD8UQStvQg539iP8zd0\nz13sLChRadmcCfkAIARkaBhVubCaWO75YuBVWtxdSe2CG3PMcVs951kX2cJyk/uN\nfcQ9I8wEjGUxRb7bTSahLp04jhGemqXGrjfdRftzpX9IjWZRUXuWOcHx05C0DjKT\n23dYqdy2GEOi7SICan7p3IcXyQKBgQDCuzz5sA/9tRM1MWaxPFCDaUw+tAp4Z009\nPEtysjmneZehYBSgsNIxqahd8uCDGTTZS1hRkbEijESnKU0ZcCefemri4SVK68im\nkKf6hyIVu4NWJr6/5KzDw5Apv7c19ec7vOnPCeZvnxU3To7INhPfjRxFPsgY4cwI\n9SL3EanqeQKBgQD23G2vbls2BIRlkpiXeKtz/mAUB3QY7sjoDms9sXrdpKfc21Y0\nOUEzQYqI22O9AA7z35RdpJPOegd9ArwDWyE8kGFzscjvxEVPWtSIroq0YotqmfPH\nx3xwyZ+TLkCyQ2Xv+cDo4emXKF9TSvDBKOBDpy2CG4tRRKEZrAgv1st1wQKBgDtn\n1XUykd5LFD4BARwGk2VThTAHyr3qfbS1pSqrVk1SGcDgR8qxxp3h7PwkMPutf+Le\nSmYv9QLeGb+JKP0equfK97qZBsBxZ7fwn14dRXetyaZJkZ2GzHG4Qk2KMAElMFKY\nEhfYJFVfCaDitUo8vRlQuhQhz/dPQuhkqDMJT3W5AoGBAIQ0s/tRJBGkWW8vnpPq\nXBDv2LGbLmeZ4p8YJA29kIP+Iits/xbivIG+lrzZE8AL1lgtpNoYdHDbP2SW/73D\nSCpdnb4NWjYClNtWbI6lmWME/vTQNLKcRLtYJEW4T1biehtXI87XMUuJAPrhQYS2\n2qwIH7jDR8KiQTGayHITuwpR\n-----END PRIVATE KEY-----\n",
  "client_email": "lancelot@deep-geography-410920.iam.gserviceaccount.com",
  "client_id": "114356023270469711108",
  "auth_uri": "https://accounts.google.com/o/oauth2/auth",
  "token_uri": "https://oauth2.googleapis.com/token",
  "auth_provider_x509_cert_url": "https://www.googleapis.com/oauth2/v1/certs",
  "client_x509_cert_url": "https://www.googleapis.com/robot/v1/metadata/x509/lancelot%40deep-geography-410920.iam.gserviceaccount.com",
  "universe_domain": "googleapis.com"
}